SBS data for PMID: 35949260 — Degasperi_SBS_GEL_PCAWG_HW • basilica
…
    Usage

data(Degasperi_SBS_GEL_PCAWG_HW)

    Format

    An object of class list of length 21.

    Examples

data(Degasperi_SBS_GEL_PCAWG_HW)
print(Degasperi_SBS_GEL_PCAWG_HW)
#> $Biliary
#> # A tibble: 141 × 101
#>    sample   organ cohort A[C>A…¹ A[C>A…² A[C>A…³ A[C>A…⁴ C[C>A…⁵ C[C>A…⁶ C[C>A…⁷
#>    <chr>    <chr> <chr>    <dbl>   <dbl>   <dbl>   <dbl>   <dbl>   <dbl>   <dbl>
#>  1 GEL-262… Bili… GEL        297     175      19     136     252     182      46
#>  2 GEL-225… Bili… GEL         43      43      10      28      27      29       4
#>  3 GEL-256… Bili… GEL         44      36       5      25      30      16       6
#>  4 GEL-261… Bili… GEL         73      42       8      39      50      39       4
#>  5 GEL-238… Bili… GEL         74      74      14      62      60      52      11
#>  6 GEL-200… Bili… GEL         55      36       7      32      33      37       3
#>  7 GEL-264… Bili… GEL         76      32      13      44      48      34       6
#>  8 GEL-289… Bili… GEL         89      82       8      49      49      44       8
#>  9 GEL-289… Bili… GEL         56      52       6      33      30      29       5
#> 10 GEL-264… Bili… GEL        144     123      13     110      85      88      14
#> # … with 131 more rows, 91 more variables: `C[C>A]T` <dbl>, `G[C>A]A` <dbl>,
#> #   `G[C>A]C` <dbl>, `G[C>A]G` <dbl>, `G[C>A]T` <dbl>, `T[C>A]A` <dbl>,
#> #   `T[C>A]C` <dbl>, `T[C>A]G` <dbl>, `T[C>A]T` <dbl>, `A[C>G]A` <dbl>,
#> #   `A[C>G]C` <dbl>, `A[C>G]G` <dbl>, `A[C>G]T` <dbl>, `C[C>G]A` <dbl>,
#> #   `C[C>G]C` <dbl>, `C[C>G]G` <dbl>, `C[C>G]T` <dbl>, `G[C>G]A` <dbl>,
#> #   `G[C>G]C` <dbl>, `G[C>G]G` <dbl>, `G[C>G]T` <dbl>, `T[C>G]A` <dbl>,
#> #   `T[C>G]C` <dbl>, `T[C>G]G` <dbl>, `T[C>G]T` <dbl>, `A[C>T]A` <dbl>, …
#> 
#> $Bladder
#> # A tibble: 512 × 101
#>    sample   organ cohort A[C>A…¹ A[C>A…² A[C>A…³ A[C>A…⁴ C[C>A…⁵ C[C>A…⁶ C[C>A…⁷
#>    <chr>    <chr> <chr>    <dbl>   <dbl>   <dbl>   <dbl>   <dbl>   <dbl>   <dbl>
#>  1 GEL-246… Blad… GEL        388     266      60     199     379     229      57
#>  2 GEL-255… Blad… GEL         81     101      91      75     110     103      51
#>  3 GEL-259… Blad… GEL        161     129      32     112     154     125      33
#>  4 GEL-252… Blad… GEL         57      42       7      36      48      42       7
#>  5 GEL-215… Blad… GEL         49      51       4      22      37      32       6
#>  6 GEL-213… Blad… GEL         63      66      23      50      69      68      32
#>  7 GEL-216… Blad… GEL         70      56      21      35      78      69      21
#>  8 GEL-295… Blad… GEL        165     171      39     131     200     179      27
#>  9 GEL-216… Blad… GEL        362     280      64     275     408     374      99
#> 10 GEL-275… Blad… GEL         74      75      16      43      57      63      10
#> # … with 502 more rows, 91 more variables: `C[C>A]T` <dbl>, `G[C>A]A` <dbl>,
#> #   `G[C>A]C` <dbl>, `G[C>A]G` <dbl>, `G[C>A]T` <dbl>, `T[C>A]A` <dbl>,
#> #   `T[C>A]C` <dbl>, `T[C>A]G` <dbl>, `T[C>A]T` <dbl>, `A[C>G]A` <dbl>,
#> #   `A[C>G]C` <dbl>, `A[C>G]G` <dbl>, `A[C>G]T` <dbl>, `C[C>G]A` <dbl>,
#> #   `C[C>G]C` <dbl>, `C[C>G]G` <dbl>, `C[C>G]T` <dbl>, `G[C>G]A` <dbl>,
#> #   `G[C>G]C` <dbl>, `G[C>G]G` <dbl>, `G[C>G]T` <dbl>, `T[C>G]A` <dbl>,
#> #   `T[C>G]C` <dbl>, `T[C>G]G` <dbl>, `T[C>G]T` <dbl>, `A[C>T]A` <dbl>, …
#> 
#> $Bone_SoftTissue
#> # A tibble: 1,733 × 101
#>    sample   organ cohort A[C>A…¹ A[C>A…² A[C>A…³ A[C>A…⁴ C[C>A…⁵ C[C>A…⁶ C[C>A…⁷
#>    <chr>    <chr> <chr>    <dbl>   <dbl>   <dbl>   <dbl>   <dbl>   <dbl>   <dbl>
#>  1 GEL-296… Bone… GEL         91      57       9      60      62      33       7
#>  2 GEL-264… Bone… GEL        161     112      23     148     101     101      19
#>  3 GEL-200… Bone… GEL         85      61      14      73      68      52       9
#>  4 GEL-209… Bone… GEL         72      51      12      50      50      34       7
#>  5 GEL-257… Bone… GEL        197     160      27     208     404     193      50
#>  6 GEL-289… Bone… GEL        185     152      21     143     196     165      36
#>  7 GEL-284… Bone… GEL         46      62       7      59      36      47       4
#>  8 GEL-237… Bone… GEL         37      25       7      19      36      26       3
#>  9 GEL-203… Bone… GEL        166     121      23     120     115      86      18
#> 10 GEL-251… Bone… GEL        103      94      25     112     135     106      13
#> # … with 1,723 more rows, 91 more variables: `C[C>A]T` <dbl>, `G[C>A]A` <dbl>,
#> #   `G[C>A]C` <dbl>, `G[C>A]G` <dbl>, `G[C>A]T` <dbl>, `T[C>A]A` <dbl>,
#> #   `T[C>A]C` <dbl>, `T[C>A]G` <dbl>, `T[C>A]T` <dbl>, `A[C>G]A` <dbl>,
#> #   `A[C>G]C` <dbl>, `A[C>G]G` <dbl>, `A[C>G]T` <dbl>, `C[C>G]A` <dbl>,
#> #   `C[C>G]C` <dbl>, `C[C>G]G` <dbl>, `C[C>G]T` <dbl>, `G[C>G]A` <dbl>,
#> #   `G[C>G]C` <dbl>, `G[C>G]G` <dbl>, `G[C>G]T` <dbl>, `T[C>G]A` <dbl>,
#> #   `T[C>G]C` <dbl>, `T[C>G]G` <dbl>, `T[C>G]T` <dbl>, `A[C>T]A` <dbl>, …
#> 
#> $Breast
#> # A tibble: 3,974 × 101
#>    sample   organ cohort A[C>A…¹ A[C>A…² A[C>A…³ A[C>A…⁴ C[C>A…⁵ C[C>A…⁶ C[C>A…⁷
#>    <chr>    <chr> <chr>    <dbl>   <dbl>   <dbl>   <dbl>   <dbl>   <dbl>   <dbl>
#>  1 GEL-296… Brea… GEL         53      43      16      28      36      18       8
#>  2 GEL-223… Brea… GEL         33      19       5      19      18      19       7
#>  3 GEL-247… Brea… GEL        131      81      11      70     143      71      25
#>  4 GEL-251… Brea… GEL        279     199      32     202     226     154      38
#>  5 GEL-290… Brea… GEL         54      54      11      38      40      37      13
#>  6 GEL-246… Brea… GEL         48      36       5      35      47      17       9
#>  7 GEL-214… Brea… GEL         33      18       7      16      25      12       2
#>  8 GEL-267… Brea… GEL         49      40       5      31      35      27       4
#>  9 GEL-291… Brea… GEL        106     124      22      63      70      58      24
#> 10 GEL-266… Brea… GEL         30      19       5      22      18      12       8
#> # … with 3,964 more rows, 91 more variables: `C[C>A]T` <dbl>, `G[C>A]A` <dbl>,
#> #   `G[C>A]C` <dbl>, `G[C>A]G` <dbl>, `G[C>A]T` <dbl>, `T[C>A]A` <dbl>,
#> #   `T[C>A]C` <dbl>, `T[C>A]G` <dbl>, `T[C>A]T` <dbl>, `A[C>G]A` <dbl>,
#> #   `A[C>G]C` <dbl>, `A[C>G]G` <dbl>, `A[C>G]T` <dbl>, `C[C>G]A` <dbl>,
#> #   `C[C>G]C` <dbl>, `C[C>G]G` <dbl>, `C[C>G]T` <dbl>, `G[C>G]A` <dbl>,
#> #   `G[C>G]C` <dbl>, `G[C>G]G` <dbl>, `G[C>G]T` <dbl>, `T[C>G]A` <dbl>,
#> #   `T[C>G]C` <dbl>, `T[C>G]G` <dbl>, `T[C>G]T` <dbl>, `A[C>T]A` <dbl>, …
#> 
#> $CNS
#> # A tibble: 809 × 101
#>    sample   organ cohort A[C>A…¹ A[C>A…² A[C>A…³ A[C>A…⁴ C[C>A…⁵ C[C>A…⁶ C[C>A…⁷
#>    <chr>    <chr> <chr>    <dbl>   <dbl>   <dbl>   <dbl>   <dbl>   <dbl>   <dbl>
#>  1 GEL-293… CNS   GEL        101      88      14      67      81      77       4
#>  2 GEL-273… CNS   GEL        124     117      19     118     124     100       8
#>  3 GEL-244… CNS   GEL         81      73      22      58      63      58       7
#>  4 GEL-222… CNS   GEL        108      88      13      94      74     102       7
#>  5 GEL-205… CNS   GEL         55      37       5      19      35      15       4
#>  6 GEL-221… CNS   GEL         49      43      11      41      42      48       3
#>  7 GEL-245… CNS   GEL        161     148      24     110     127     131      20
#>  8 GEL-237… CNS   GEL         78      65      11      72      46      26       2
#>  9 GEL-287… CNS   GEL         97     100      17      74      65      57      12
#> 10 GEL-222… CNS   GEL        144     114      15     104     114      99       9
#> # … with 799 more rows, 91 more variables: `C[C>A]T` <dbl>, `G[C>A]A` <dbl>,
#> #   `G[C>A]C` <dbl>, `G[C>A]G` <dbl>, `G[C>A]T` <dbl>, `T[C>A]A` <dbl>,
#> #   `T[C>A]C` <dbl>, `T[C>A]G` <dbl>, `T[C>A]T` <dbl>, `A[C>G]A` <dbl>,
#> #   `A[C>G]C` <dbl>, `A[C>G]G` <dbl>, `A[C>G]T` <dbl>, `C[C>G]A` <dbl>,
#> #   `C[C>G]C` <dbl>, `C[C>G]G` <dbl>, `C[C>G]T` <dbl>, `G[C>G]A` <dbl>,
#> #   `G[C>G]C` <dbl>, `G[C>G]G` <dbl>, `G[C>G]T` <dbl>, `T[C>G]A` <dbl>,
#> #   `T[C>G]C` <dbl>, `T[C>G]G` <dbl>, `T[C>G]T` <dbl>, `A[C>T]A` <dbl>, …
#> 
#> $Colorectal
#> # A tibble: 2,893 × 101
#>    sample   organ cohort A[C>A…¹ A[C>A…² A[C>A…³ A[C>A…⁴ C[C>A…⁵ C[C>A…⁶ C[C>A…⁷
#>    <chr>    <chr> <chr>    <dbl>   <dbl>   <dbl>   <dbl>   <dbl>   <dbl>   <dbl>
#>  1 GEL-290… Colo… GEL         74      38      13      40      36      22       6
#>  2 GEL-222… Colo… GEL        933     584      85     697     746     473      89
#>  3 GEL-221… Colo… GEL        548     249      47     286     515     206      81
#>  4 GEL-253… Colo… GEL        222     117      13     112     179      84      20
#>  5 GEL-285… Colo… GEL        263     179      29     155     222     127      32
#>  6 GEL-215… Colo… GEL        273     178      21     153     204     126      29
#>  7 GEL-283… Colo… GEL        204     118      16     109     170      78      19
#>  8 GEL-229… Colo… GEL        403     352      28     317     449     297      48
#>  9 GEL-288… Colo… GEL        181     100      17     121     150      67      23
#> 10 GEL-281… Colo… GEL        472     274      35     268     327     165      38
#> # … with 2,883 more rows, 91 more variables: `C[C>A]T` <dbl>, `G[C>A]A` <dbl>,
#> #   `G[C>A]C` <dbl>, `G[C>A]G` <dbl>, `G[C>A]T` <dbl>, `T[C>A]A` <dbl>,
#> #   `T[C>A]C` <dbl>, `T[C>A]G` <dbl>, `T[C>A]T` <dbl>, `A[C>G]A` <dbl>,
#> #   `A[C>G]C` <dbl>, `A[C>G]G` <dbl>, `A[C>G]T` <dbl>, `C[C>G]A` <dbl>,
#> #   `C[C>G]C` <dbl>, `C[C>G]G` <dbl>, `C[C>G]T` <dbl>, `G[C>G]A` <dbl>,
#> #   `G[C>G]C` <dbl>, `G[C>G]G` <dbl>, `G[C>G]T` <dbl>, `T[C>G]A` <dbl>,
#> #   `T[C>G]C` <dbl>, `T[C>G]G` <dbl>, `T[C>G]T` <dbl>, `A[C>T]A` <dbl>, …
#> 
#> $Esophagus
#> # A tibble: 235 × 101
#>    sample   organ cohort A[C>A…¹ A[C>A…² A[C>A…³ A[C>A…⁴ C[C>A…⁵ C[C>A…⁶ C[C>A…⁷
#>    <chr>    <chr> <chr>    <dbl>   <dbl>   <dbl>   <dbl>   <dbl>   <dbl>   <dbl>
#>  1 3bb4c27… Esop… ICGC       288     143      21     163     211     120      18
#>  2 cb753e6… Esop… ICGC       502     277      32     280     366     169      50
#>  3 bb5bedd… Esop… ICGC       251      91      20     123     193      63      32
#>  4 ba096d4… Esop… ICGC       149      92      19      62     115      59      22
#>  5 9bb9164… Esop… ICGC       134     105      13      84     107      68      16
#>  6 7c5c229… Esop… ICGC       454     299      42     303     289     188      27
#>  7 a37a825… Esop… ICGC       294     163      26     168     193     149      21
#>  8 96a2896… Esop… ICGC       306     183      25     184     239     128      37
#>  9 09497b9… Esop… ICGC       148     112      17     114     110      77      12
#> 10 b02b4bb… Esop… ICGC       198     156      21     155     163     129      26
#> # … with 225 more rows, 91 more variables: `C[C>A]T` <dbl>, `G[C>A]A` <dbl>,
#> #   `G[C>A]C` <dbl>, `G[C>A]G` <dbl>, `G[C>A]T` <dbl>, `T[C>A]A` <dbl>,
#> #   `T[C>A]C` <dbl>, `T[C>A]G` <dbl>, `T[C>A]T` <dbl>, `A[C>G]A` <dbl>,
#> #   `A[C>G]C` <dbl>, `A[C>G]G` <dbl>, `A[C>G]T` <dbl>, `C[C>G]A` <dbl>,
#> #   `C[C>G]C` <dbl>, `C[C>G]G` <dbl>, `C[C>G]T` <dbl>, `G[C>G]A` <dbl>,
#> #   `G[C>G]C` <dbl>, `G[C>G]G` <dbl>, `G[C>G]T` <dbl>, `T[C>G]A` <dbl>,
#> #   `T[C>G]C` <dbl>, `T[C>G]G` <dbl>, `T[C>G]T` <dbl>, `A[C>T]A` <dbl>, …
#> 
#> $Head_neck
#> # A tibble: 117 × 101
#>    sample   organ cohort A[C>A…¹ A[C>A…² A[C>A…³ A[C>A…⁴ C[C>A…⁵ C[C>A…⁶ C[C>A…⁷
#>    <chr>    <chr> <chr>    <dbl>   <dbl>   <dbl>   <dbl>   <dbl>   <dbl>   <dbl>
#>  1 b86e88e… Head… ICGC       112      48      11      52     128      55      20
#>  2 a315b79… Head… ICGC       284     131      32     180     256     135      37
#>  3 0e6ca8d… Head… ICGC        81     103       9      76     119      77      15
#>  4 8294a96… Head… ICGC       331     173      47     223     301     170      46
#>  5 c76f7fc… Head… ICGC       405     225      45     271     351     197      58
#>  6 a8041e8… Head… ICGC       102      55       5      54     110      59      10
#>  7 dd67dec… Head… ICGC        77      48       8      37      72      39      11
#>  8 3e604a1… Head… ICGC      3025    1716     642    1766    4195    3359     885
#>  9 8159835… Head… ICGC        44      50       8      28      48      36       9
#> 10 6bbd66d… Head… ICGC        58      24       6      34      52      24      12
#> # … with 107 more rows, 91 more variables: `C[C>A]T` <dbl>, `G[C>A]A` <dbl>,
#> #   `G[C>A]C` <dbl>, `G[C>A]G` <dbl>, `G[C>A]T` <dbl>, `T[C>A]A` <dbl>,
#> #   `T[C>A]C` <dbl>, `T[C>A]G` <dbl>, `T[C>A]T` <dbl>, `A[C>G]A` <dbl>,
#> #   `A[C>G]C` <dbl>, `A[C>G]G` <dbl>, `A[C>G]T` <dbl>, `C[C>G]A` <dbl>,
#> #   `C[C>G]C` <dbl>, `C[C>G]G` <dbl>, `C[C>G]T` <dbl>, `G[C>G]A` <dbl>,
#> #   `G[C>G]C` <dbl>, `G[C>G]G` <dbl>, `G[C>G]T` <dbl>, `T[C>G]A` <dbl>,
#> #   `T[C>G]C` <dbl>, `T[C>G]G` <dbl>, `T[C>G]T` <dbl>, `A[C>T]A` <dbl>, …
#> 
#> $Kidney
#> # A tibble: 1,641 × 101
#>    sample   organ cohort A[C>A…¹ A[C>A…² A[C>A…³ A[C>A…⁴ C[C>A…⁵ C[C>A…⁶ C[C>A…⁷
#>    <chr>    <chr> <chr>    <dbl>   <dbl>   <dbl>   <dbl>   <dbl>   <dbl>   <dbl>
#>  1 GEL-293… Kidn… GEL        357     151      21     170     230     190      40
#>  2 GEL-224… Kidn… GEL         91      64      19      88      98      94      16
#>  3 GEL-257… Kidn… GEL         49      15       5      20      35      32       6
#>  4 GEL-260… Kidn… GEL        131      81      15      73      99      90      20
#>  5 GEL-290… Kidn… GEL        103      43       8      48      71      45       8
#>  6 GEL-297… Kidn… GEL         65      74      12      57      73      54      20
#>  7 GEL-281… Kidn… GEL        104      37       6      55      86      72      17
#>  8 GEL-228… Kidn… GEL         92      41      11      54      84      47      17
#>  9 GEL-218… Kidn… GEL        126      84      13      80     108      72      12
#> 10 GEL-255… Kidn… GEL         45      26       9      35      38      27       6
#> # … with 1,631 more rows, 91 more variables: `C[C>A]T` <dbl>, `G[C>A]A` <dbl>,
#> #   `G[C>A]C` <dbl>, `G[C>A]G` <dbl>, `G[C>A]T` <dbl>, `T[C>A]A` <dbl>,
#> #   `T[C>A]C` <dbl>, `T[C>A]G` <dbl>, `T[C>A]T` <dbl>, `A[C>G]A` <dbl>,
#> #   `A[C>G]C` <dbl>, `A[C>G]G` <dbl>, `A[C>G]T` <dbl>, `C[C>G]A` <dbl>,
#> #   `C[C>G]C` <dbl>, `C[C>G]G` <dbl>, `C[C>G]T` <dbl>, `G[C>G]A` <dbl>,
#> #   `G[C>G]C` <dbl>, `G[C>G]G` <dbl>, `G[C>G]T` <dbl>, `T[C>G]A` <dbl>,
#> #   `T[C>G]C` <dbl>, `T[C>G]G` <dbl>, `T[C>G]T` <dbl>, `A[C>T]A` <dbl>, …
#> 
#> $Liver
#> # A tibble: 383 × 101
#>    sample   organ cohort A[C>A…¹ A[C>A…² A[C>A…³ A[C>A…⁴ C[C>A…⁵ C[C>A…⁶ C[C>A…⁷
#>    <chr>    <chr> <chr>    <dbl>   <dbl>   <dbl>   <dbl>   <dbl>   <dbl>   <dbl>
#>  1 GEL-209… Liver GEL        188     136      24     124     204     142      35
#>  2 GEL-228… Liver GEL        222     188      42     137     217     224      59
#>  3 GEL-238… Liver GEL        381     214      60     215     357     338      61
#>  4 GEL-240… Liver GEL         75      39      11      44      44      30       8
#>  5 GEL-255… Liver GEL        135      84      13      60      74      86      11
#>  6 GEL-223… Liver GEL        114      49      17      43      79      76       5
#>  7 GEL-243… Liver GEL        138      92      20      64     105      92      21
#>  8 GEL-255… Liver GEL        201     114      23     107     107     127      19
#>  9 GEL-275… Liver GEL        155      68      23      72      99     105      12
#> 10 GEL-209… Liver GEL        121      52      14      68      78      81      19
#> # … with 373 more rows, 91 more variables: `C[C>A]T` <dbl>, `G[C>A]A` <dbl>,
#> #   `G[C>A]C` <dbl>, `G[C>A]G` <dbl>, `G[C>A]T` <dbl>, `T[C>A]A` <dbl>,
#> #   `T[C>A]C` <dbl>, `T[C>A]G` <dbl>, `T[C>A]T` <dbl>, `A[C>G]A` <dbl>,
#> #   `A[C>G]C` <dbl>, `A[C>G]G` <dbl>, `A[C>G]T` <dbl>, `C[C>G]A` <dbl>,
#> #   `C[C>G]C` <dbl>, `C[C>G]G` <dbl>, `C[C>G]T` <dbl>, `G[C>G]A` <dbl>,
#> #   `G[C>G]C` <dbl>, `G[C>G]G` <dbl>, `G[C>G]T` <dbl>, `T[C>G]A` <dbl>,
#> #   `T[C>G]C` <dbl>, `T[C>G]G` <dbl>, `T[C>G]T` <dbl>, `A[C>T]A` <dbl>, …
#> 
#> $Lung
#> # A tibble: 1,461 × 101
#>    sample   organ cohort A[C>A…¹ A[C>A…² A[C>A…³ A[C>A…⁴ C[C>A…⁵ C[C>A…⁶ C[C>A…⁷
#>    <chr>    <chr> <chr>    <dbl>   <dbl>   <dbl>   <dbl>   <dbl>   <dbl>   <dbl>
#>  1 GEL-257… Lung  GEL       1580     986     441     990    1938    1632     444
#>  2 GEL-216… Lung  GEL       1835    1005     466    1067    2154    1729     458
#>  3 GEL-278… Lung  GEL       1152     673     283     790    1368    1237     303
#>  4 GEL-276… Lung  GEL        198     109      30     108     121      96      12
#>  5 GEL-233… Lung  GEL       2100    1367     650    1243    3223    3048     864
#>  6 GEL-291… Lung  GEL        934     513     225     576    1023     806     232
#>  7 GEL-263… Lung  GEL       1956    1135     489    1322    2541    2197     581
#>  8 GEL-295… Lung  GEL        387     221      89     264     385     334      78
#>  9 GEL-249… Lung  GEL       1070     649     273     689    1397    1150     307
#> 10 GEL-209… Lung  GEL       1294     812     332     828    1652    1441     413
#> # … with 1,451 more rows, 91 more variables: `C[C>A]T` <dbl>, `G[C>A]A` <dbl>,
#> #   `G[C>A]C` <dbl>, `G[C>A]G` <dbl>, `G[C>A]T` <dbl>, `T[C>A]A` <dbl>,
#> #   `T[C>A]C` <dbl>, `T[C>A]G` <dbl>, `T[C>A]T` <dbl>, `A[C>G]A` <dbl>,
#> #   `A[C>G]C` <dbl>, `A[C>G]G` <dbl>, `A[C>G]T` <dbl>, `C[C>G]A` <dbl>,
#> #   `C[C>G]C` <dbl>, `C[C>G]G` <dbl>, `C[C>G]T` <dbl>, `G[C>G]A` <dbl>,
#> #   `G[C>G]C` <dbl>, `G[C>G]G` <dbl>, `G[C>G]T` <dbl>, `T[C>G]A` <dbl>,
#> #   `T[C>G]C` <dbl>, `T[C>G]G` <dbl>, `T[C>G]T` <dbl>, `A[C>T]A` <dbl>, …
#> 
#> $Lymphoid
#> # A tibble: 378 × 101
#>    sample   organ cohort A[C>A…¹ A[C>A…² A[C>A…³ A[C>A…⁴ C[C>A…⁵ C[C>A…⁶ C[C>A…⁷
#>    <chr>    <chr> <chr>    <dbl>   <dbl>   <dbl>   <dbl>   <dbl>   <dbl>   <dbl>
#>  1 GEL-259… Lymp… GEL        119     105      16     127     101      63       7
#>  2 GEL-287… Lymp… GEL         48      44       7      36      35      30       9
#>  3 GEL-233… Lymp… GEL        214      71      15      81     124      77      39
#>  4 GEL-274… Lymp… GEL         44      26       4      24      23      17       7
#>  5 GEL-292… Lymp… GEL        107      83      18      98      94      65      15
#>  6 GEL-288… Lymp… GEL        299     202      71     243     223     189     276
#>  7 GEL-244… Lymp… GEL        335     213      26     243     275     150      30
#>  8 GEL-277… Lymp… GEL         29      25       3      15      31       9       3
#>  9 GEL-210… Lymp… GEL         64      45       5      47      68      27      11
#> 10 GEL-274… Lymp… GEL        123     109      11     100      92      44       9
#> # … with 368 more rows, 91 more variables: `C[C>A]T` <dbl>, `G[C>A]A` <dbl>,
#> #   `G[C>A]C` <dbl>, `G[C>A]G` <dbl>, `G[C>A]T` <dbl>, `T[C>A]A` <dbl>,
#> #   `T[C>A]C` <dbl>, `T[C>A]G` <dbl>, `T[C>A]T` <dbl>, `A[C>G]A` <dbl>,
#> #   `A[C>G]C` <dbl>, `A[C>G]G` <dbl>, `A[C>G]T` <dbl>, `C[C>G]A` <dbl>,
#> #   `C[C>G]C` <dbl>, `C[C>G]G` <dbl>, `C[C>G]T` <dbl>, `G[C>G]A` <dbl>,
#> #   `G[C>G]C` <dbl>, `G[C>G]G` <dbl>, `G[C>G]T` <dbl>, `T[C>G]A` <dbl>,
#> #   `T[C>G]C` <dbl>, `T[C>G]G` <dbl>, `T[C>G]T` <dbl>, `A[C>T]A` <dbl>, …
…
